(footprint "KEEP_OUT_LAYER_MASKS" (version 20220308) (generator pcbnew)
  (layer "F.Cu")
  (fp_text reference "REF**" (at 0 0) (layer "F.SilkS")
      (effects (font (size 1.27 1.27) (thickness 0.15)))
    (tstamp b9b7e53d-3602-4ecb-8bd9-f600a70d921b)
  )
  (fp_text value "KEEP_OUT_LAYER_MASKS" (at 0 0) (layer "F.SilkS")
      (effects (font (size 1.27 1.27) (thickness 0.15)))
    (tstamp 5ff5698c-9ab3-4576-b2ed-0b66ce45d81a)
  )
  (zone (net 0) (net_name "") (layers *.Cu) (tstamp 2d10eccd-61e3-4252-9fa9-23c10b817c27) (hatch edge 0.508)
    (connect_pads (clearance 0))
    (min_thickness 0.254) (filled_areas_thickness no)
    (keepout (tracks allowed) (vias allowed) (pads allowed ) (copperpour allowed) (footprints allowed))
    (fill (thermal_gap 0.508) (thermal_bridge_width 0.508) (island_removal_mode 0) (island_area_min 10))
    (polygon
      (pts
        (xy 0.67078 -0.121856)
        (xy 0.73098 -0.083167)
        (xy 0.760707 -0.018074)
        (xy 0.750523 0.052758)
        (xy 0.703661 0.106839)
        (xy 0.635 0.127)
        (xy 0 0.127)
        (xy -0.03578 0.121856)
        (xy -0.09598 0.083167)
        (xy -0.125707 0.018074)
        (xy -0.115523 -0.052758)
        (xy -0.068661 -0.106839)
        (xy 0 -0.127)
        (xy 0.635 -0.127)
      )
    )
  )
  (zone (net 0) (net_name "") (layers *.Cu) (tstamp 34f17549-b1ed-4801-8730-2c7df682633a) (hatch edge 0.508)
    (connect_pads (clearance 0))
    (min_thickness 0.254) (filled_areas_thickness no)
    (keepout (tracks allowed) (vias allowed) (pads allowed ) (copperpour allowed) (footprints allowed))
    (fill (thermal_gap 0.508) (thermal_bridge_width 0.508) (island_removal_mode 0) (island_area_min 10))
    (polygon
      (pts
        (xy 0.955135 -0.492465)
        (xy 1.02506 -0.507676)
        (xy 1.092108 -0.482668)
        (xy 1.134992 -0.425381)
        (xy 1.140097 -0.354004)
        (xy 1.105802 -0.291197)
        (xy 0.724803 0.089803)
        (xy 0.695865 0.111465)
        (xy 0.62594 0.126676)
        (xy 0.558892 0.101669)
        (xy 0.516007 0.044382)
        (xy 0.510903 -0.026996)
        (xy 0.545197 -0.089803)
        (xy 0.926197 -0.470802)
      )
    )
  )
)
