(footprint "MOLEX_GNSS_CUBE" (version 20220308) (generator pcbnew)
  (layer "F.Cu")
  (fp_text reference "REF**" (at 0 -2.54) (layer "F.SilkS")
      (effects (font (size 0.46736 0.46736) (thickness 0.04064)))
    (tstamp 956e2264-ba1c-425e-aeac-f9910dee9176)
  )
  (fp_text value "MOLEX_GNSS_CUBE" (at 0 -0.889) (layer "F.Fab")
      (effects (font (size 0.46736 0.46736) (thickness 0.04064)))
    (tstamp 93bd0dd9-b5e0-459a-8b58-43df88932fd5)
  )
  (fp_line (start -5.842 5.842) (end -5.842 -5.842)
    (stroke (width 0.1524) (type solid)) (layer "F.SilkS") (tstamp 85743e4d-2f74-44a4-8d9b-1dff97d381d6))
  (fp_line (start -1.905 -5.842) (end 1.905 -5.842)
    (stroke (width 0.1524) (type solid)) (layer "F.SilkS") (tstamp 33cc0c1c-469c-4daf-b465-fe4b47bb6157))
  (fp_line (start 2.54 5.842) (end -1.905 5.842)
    (stroke (width 0.1524) (type solid)) (layer "F.SilkS") (tstamp bbd135d9-831a-4d12-80ab-7531aedd382b))
  (fp_line (start 5.842 -5.842) (end 5.842 2.413)
    (stroke (width 0.1524) (type solid)) (layer "F.SilkS") (tstamp 990fdc37-7732-43a1-b627-bc838fa0f0df))
  (fp_line (start 5.842 4.445) (end 5.842 5.842)
    (stroke (width 0.1524) (type solid)) (layer "F.SilkS") (tstamp 202405e9-19e4-472d-a69a-7c19a3954571))
  (fp_line (start 5.842 5.842) (end 4.572 5.842)
    (stroke (width 0.1524) (type solid)) (layer "F.SilkS") (tstamp f31a6a44-f538-47e7-b540-f1107d47737d))
  (fp_poly
    (pts
      (xy -4.75 -3.14)
      (xy 3.14 -3.14)
      (xy 3.14 -4.05)
      (xy -4.75 -4.05)
    )

    (stroke (width 0) (type default)) (fill solid) (layer "F.SilkS") (tstamp acf7ef2c-33fc-4ea2-8521-a23a55e21fce))
  (fp_poly
    (pts
      (xy -4.75 -2.3)
      (xy -3.75 -2.3)
      (xy -3.75 -3.14)
      (xy -4.75 -3.14)
    )

    (stroke (width 0) (type default)) (fill solid) (layer "F.SilkS") (tstamp 66f7f78c-ce1b-44e2-8362-42ee5370a489))
  (fp_poly
    (pts
      (xy -3.61 3.61)
      (xy 1.64 3.61)
      (xy 1.64 -1.64)
      (xy -3.61 -1.64)
    )

    (stroke (width 0) (type default)) (fill solid) (layer "F.SilkS") (tstamp 92f5c184-72bc-4de5-ba61-39f1f072e9b2))
  (fp_poly
    (pts
      (xy 3.14 4)
      (xy 4.14 4)
      (xy 4.14 -4.05)
      (xy 3.14 -4.05)
    )

    (stroke (width 0) (type default)) (fill solid) (layer "F.SilkS") (tstamp 045e17f4-c914-490e-a1e7-0e288b083f2e))
  (fp_line (start -5.86 -5.86) (end 5.86 -5.86)
    (stroke (width 0.05) (type solid)) (layer "F.Fab") (tstamp e97d5281-1120-428f-8027-f17471aab3ca))
  (fp_line (start -5.86 5.86) (end -5.86 -5.86)
    (stroke (width 0.05) (type solid)) (layer "F.Fab") (tstamp af959b2c-0e77-473a-8d71-b4b87fcdfeb3))
  (fp_line (start 5.86 -5.86) (end 5.86 5.86)
    (stroke (width 0.05) (type solid)) (layer "F.Fab") (tstamp f618ed08-90ec-4175-bf71-124acbb491b5))
  (fp_line (start 5.86 5.86) (end -5.86 5.86)
    (stroke (width 0.05) (type solid)) (layer "F.Fab") (tstamp b1744190-f4cd-46f8-80fe-caf4ee08c64d))
  (fp_poly
    (pts
      (xy 3.295 7.5)
      (xy 3.795 7.5)
      (xy 3.795 5)
      (xy 3.295 5)
    )

    (stroke (width 0) (type default)) (fill solid) (layer "F.Fab") (tstamp 46581cc5-f5ca-4efc-af99-b01716f115a5))
  (pad "FEED" smd rect (at 5.33 3.4 270) (size 1.3 1.61) (layers "F.Cu" "F.Paste" "F.Mask")
    (solder_mask_margin 0.1016) (thermal_bridge_angle 45) (tstamp 8f3e9b92-6020-4dad-ab7f-f291599e6fda))
  (pad "GND" smd rect (at 3.545 5.2 180) (size 1.3 1.32) (layers "F.Cu" "F.Paste" "F.Mask")
    (solder_mask_margin 0.1016) (thermal_bridge_angle 45) (tstamp cb0e3751-7690-4552-ab68-38c2ad410ac6))
  (pad "NC1" smd rect (at -3.905 5.06 90) (size 1.6 3.2) (layers "F.Cu" "F.Paste" "F.Mask")
    (solder_mask_margin 0.1016) (thermal_bridge_angle 45) (tstamp eed3a374-83b7-4490-8b98-01ec11669e0b))
  (pad "NC2" smd rect (at -3.905 -5.06 90) (size 1.6 3.2) (layers "F.Cu" "F.Paste" "F.Mask")
    (solder_mask_margin 0.1016) (thermal_bridge_angle 45) (tstamp 5a9d22d3-2476-4cef-a3ec-b649c8ba9a05))
  (pad "NC3" smd rect (at 3.905 -5.06 90) (size 1.6 3.2) (layers "F.Cu" "F.Paste" "F.Mask")
    (solder_mask_margin 0.1016) (thermal_bridge_angle 45) (tstamp 1598b68e-1cd6-42b8-85b9-19e005c06267))
  (zone (net 0) (net_name "") (layer "F.Cu") (tstamp 532c31d0-9ff5-4f64-a276-ffdffb90978c) (hatch edge 0.508)
    (connect_pads (clearance 0))
    (min_thickness 0.254) (filled_areas_thickness no)
    (keepout (tracks not_allowed) (vias not_allowed) (pads not_allowed ) (copperpour not_allowed) (footprints allowed))
    (fill (thermal_gap 0.508) (thermal_bridge_width 0.508) (island_removal_mode 0) (island_area_min 10))
    (polygon
      (pts
        (xy 2.845 6.95)
        (xy 3.2875 6.95)
        (xy 3.2875 5.625)
        (xy 2.845 5.625)
      )
    )
  )
  (zone (net 0) (net_name "") (layer "F.Cu") (tstamp 22b304ca-71ca-4dc3-9586-c0b0653e7fc3) (hatch edge 0.508)
    (connect_pads (clearance 0))
    (min_thickness 0.254) (filled_areas_thickness no)
    (keepout (tracks not_allowed) (vias not_allowed) (pads not_allowed ) (copperpour not_allowed) (footprints allowed))
    (fill (thermal_gap 0.508) (thermal_bridge_width 0.508) (island_removal_mode 0) (island_area_min 10))
    (polygon
      (pts
        (xy 2.875 4.5)
        (xy 2.5 4.5)
        (xy 2.5 6.95)
        (xy 2.875 6.95)
      )
    )
  )
  (zone (net 0) (net_name "") (layer "F.Cu") (tstamp 3f326d97-5543-4c5a-8d15-956d654cc60e) (hatch edge 0.508)
    (connect_pads (clearance 0))
    (min_thickness 0.254) (filled_areas_thickness no)
    (keepout (tracks not_allowed) (vias not_allowed) (pads not_allowed ) (copperpour not_allowed) (footprints allowed))
    (fill (thermal_gap 0.508) (thermal_bridge_width 0.508) (island_removal_mode 0) (island_area_min 10))
    (polygon
      (pts
        (xy 3.795 6.95)
        (xy 4.2375 6.95)
        (xy 4.2375 5.975)
        (xy 3.795 5.975)
      )
    )
  )
  (zone (net 0) (net_name "") (layer "F.Cu") (tstamp af9d6285-8c33-4043-8185-8263403dc73d) (hatch edge 0.508)
    (connect_pads (clearance 0))
    (min_thickness 0.254) (filled_areas_thickness no)
    (keepout (tracks not_allowed) (vias not_allowed) (pads not_allowed ) (copperpour not_allowed) (footprints allowed))
    (fill (thermal_gap 0.508) (thermal_bridge_width 0.508) (island_removal_mode 0) (island_area_min 10))
    (polygon
      (pts
        (xy 4.125 4.45)
        (xy 4.5 4.45)
        (xy 4.5 2.35)
        (xy 4.125 2.35)
      )
    )
  )
  (zone (net 0) (net_name "") (layer "F.Cu") (tstamp 9b4b0bb1-530f-4f9a-a961-ab734fd5442f) (hatch edge 0.508)
    (connect_pads (clearance 0))
    (min_thickness 0.254) (filled_areas_thickness no)
    (keepout (tracks not_allowed) (vias not_allowed) (pads not_allowed ) (copperpour not_allowed) (footprints allowed))
    (fill (thermal_gap 0.508) (thermal_bridge_width 0.508) (island_removal_mode 0) (island_area_min 10))
    (polygon
      (pts
        (xy 4.225 6.95)
        (xy 4.6 6.95)
        (xy 4.6 4.5)
        (xy 4.225 4.5)
      )
    )
  )
  (zone (net 0) (net_name "") (layer "F.Cu") (tstamp fa5b3790-b220-4be5-a990-ca2892000201) (hatch edge 0.508)
    (connect_pads (clearance 0))
    (min_thickness 0.254) (filled_areas_thickness no)
    (keepout (tracks not_allowed) (vias not_allowed) (pads not_allowed ) (copperpour not_allowed) (footprints allowed))
    (fill (thermal_gap 0.508) (thermal_bridge_width 0.508) (island_removal_mode 0) (island_area_min 10))
    (polygon
      (pts
        (xy 4.6 4.525)
        (xy 4.6 4.15)
        (xy 2.5 4.15)
        (xy 2.5 4.525)
      )
    )
  )
  (zone (net 0) (net_name "") (layer "F.Cu") (tstamp 4fe9af7e-6bb8-4c0e-9a0c-266a90af1ec9) (hatch edge 0.508)
    (connect_pads (clearance 0))
    (min_thickness 0.254) (filled_areas_thickness no)
    (keepout (tracks not_allowed) (vias not_allowed) (pads not_allowed ) (copperpour not_allowed) (footprints allowed))
    (fill (thermal_gap 0.508) (thermal_bridge_width 0.508) (island_removal_mode 0) (island_area_min 10))
    (polygon
      (pts
        (xy 6.25 2.725)
        (xy 6.25 2.35)
        (xy 4.15 2.35)
        (xy 4.15 2.725)
      )
    )
  )
  (zone (net 0) (net_name "") (layer "F.Cu") (tstamp b605a965-8714-4d7f-bd90-b8703d3de73d) (hatch edge 0.508)
    (connect_pads (clearance 0))
    (min_thickness 0.254) (filled_areas_thickness no)
    (keepout (tracks not_allowed) (vias not_allowed) (pads not_allowed ) (copperpour not_allowed) (footprints allowed))
    (fill (thermal_gap 0.508) (thermal_bridge_width 0.508) (island_removal_mode 0) (island_area_min 10))
    (polygon
      (pts
        (xy 6.25 4.425)
        (xy 6.25 4.05)
        (xy 4.15 4.05)
        (xy 4.15 4.425)
      )
    )
  )
)
